{
  "count": 20,
  "next": "http://example.com/products/?page=2",
  "previous": null,
  "results": [
    {
      "id": 1,
      "title": "Mens Cotton Jacket",
      "price": "55.99",
      "description": "Great outerwear jackets for Spring/Autumn/Winter, suitable for many occasions.",
      "image": "https://fakestoreapi.com/img/71li-ujtlUL._AC_UX679_.jpg",
      "rate": "0.0",
      "count": 0,
      "categories": [
        { "id": 1, "name": "men's clothing" }
      ]
    },
    {
      "id": 2,
      "title": "Mens Casual Slim Fit",
      "price": "15.99",
      "description": "The color could be slightly different between on the screen and in practice.",
      "image": "https://fakestoreapi.com/img/71YXzeOuslL._AC_UY879_.jpg",
      "rate": "0.0",
      "count": 0,
      "categories": [
        { "id": 1, "name": "men's clothing" }
      ]
    },
    {
      "id": 3,
      "title": "John Hardy Women's Legends Naga Gold & Silver Dragon Station Chain Bracelet",
      "price": "695",
      "description": "From our Legends Collection, the Naga was inspired by the mythical water dragon.",
      "image": "https://fakestoreapi.com/img/71YAIFU48IL._AC_UL640_QL65_ML3_.jpg",
      "rate": "0.0",
      "count": 0,
      "categories": [
        { "id": 2, "name": "jewelery" }
      ]
    },
    {
      "id": 4,
      "title": "Solid Gold Petite Micropave",
      "price": "168",
      "description": "Satisfaction guaranteed. Return or exchange any order within 30 days.",
      "image": "https://fakestoreapi.com/img/61sbMiUnoGL._AC_UL640_QL65_ML3_.jpg",
      "rate": "0.0",
      "count": 0,
      "categories": [
        { "id": 2, "name": "jewelery" }
      ]
    },
    {
      "id": 5,
      "title": "Pierced Owl Rose Gold Plated Stainless Steel Double",
      "price": "10.99",
      "description": "Rose gold plated double flare tunnels for daily wear.",
      "image": "https://fakestoreapi.com/img/51UDEzMJVpL._AC_UX679_.jpg",
      "rate": "0.0",
      "count": 0,
      "categories": [
        { "id": 2, "name": "jewelery" }
      ]
    },
    {
      "id": 6,
      "title": "WD 2TB Elements Portable External Hard Drive",
      "price": "64",
      "description": "USB 3.0 and USB 2.0 compatibility with improved performance.",
      "image": "https://fakestoreapi.com/img/61IBBVJvSDL._AC_SY879_.jpg",
      "rate": "0.0",
      "count": 0,
      "categories": [
        { "id": 3, "name": "electronics" }
      ]
    },
    {
      "id": 7,
      "title": "SanDisk SSD PLUS 1TB Internal SSD",
      "price": "109",
      "description": "Easy upgrade for faster boot-up, shutdown, application load and response.",
      "image": "https://fakestoreapi.com/img/61U7T1koQqL._AC_SX679_.jpg",
      "rate": "0.0",
      "count": 0,
      "categories": [
        { "id": 3, "name": "electronics" }
      ]
    },
    {
      "id": 8,
      "title": "Silicon Power 256GB SSD 3D NAND",
      "price": "109",
      "description": "3D NAND flash for higher durability and better power efficiency.",
      "image": "https://fakestoreapi.com/img/71kWymZ+c+L._AC_SX679_.jpg",
      "rate": "0.0",
      "count": 0,
      "categories": [
        { "id": 3, "name": "electronics" }
      ]
    }
  ]
}
